%YAML 1.1
%TAG !u! tag:unity3d.com,2011:
--- !u!1001 &6064093144681840992
PrefabInstance:
  m_ObjectHideFlags: 0
  serializedVersion: 2
  m_Modification:
    m_TransformParent: {fileID: 0}
    m_Modifications:
    - target: {fileID: 105062, guid: 166d0f22f17c2f3449265f51f299640c, type: 3}
      propertyPath: m_Name
      value: SM_Env_Door_Frame_Round_05 (1)
      objectReference: {fileID: 0}
    - target: {fileID: 105062, guid: 166d0f22f17c2f3449265f51f299640c, type: 3}
      propertyPath: m_IsActive
      value: 1
      objectReference: {fileID: 0}
    - target: {fileID: 472488, guid: 166d0f22f17c2f3449265f51f299640c, type: 3}
      propertyPath: m_RootOrder
      value: 0
      objectReference: {fileID: 0}
    - target: {fileID: 472488, guid: 166d0f22f17c2f3449265f51f299640c, type: 3}
      propertyPath: m_LocalPosition.x
      value: -45
      objectReference: {fileID: 0}
    - target: {fileID: 472488, guid: 166d0f22f17c2f3449265f51f299640c, type: 3}
      propertyPath: m_LocalPosition.y
      value: 10
      objectReference: {fileID: 0}
    - target: {fileID: 472488, guid: 166d0f22f17c2f3449265f51f299640c, type: 3}
      propertyPath: m_LocalPosition.z
      value: -27.5
      objectReference: {fileID: 0}
    - target: {fileID: 472488, guid: 166d0f22f17c2f3449265f51f299640c, type: 3}
      propertyPath: m_LocalRotation.w
      value: -0.7071043
      objectReference: {fileID: 0}
    - target: {fileID: 472488, guid: 166d0f22f17c2f3449265f51f299640c, type: 3}
      propertyPath: m_LocalRotation.x
      value: 0
      objectReference: {fileID: 0}
    - target: {fileID: 472488, guid: 166d0f22f17c2f3449265f51f299640c, type: 3}
      propertyPath: m_LocalRotation.y
      value: 0.7071092
      objectReference: {fileID: 0}
    - target: {fileID: 472488, guid: 166d0f22f17c2f3449265f51f299640c, type: 3}
      propertyPath: m_LocalRotation.z
      value: 0
      objectReference: {fileID: 0}
    m_RemovedComponents: []
  m_SourcePrefab: {fileID: 100100000, guid: 166d0f22f17c2f3449265f51f299640c, type: 3}
