%YAML 1.1
%TAG !u! tag:unity3d.com,2011:
--- !u!1001 &7588488668318543752
PrefabInstance:
  m_ObjectHideFlags: 0
  serializedVersion: 2
  m_Modification:
    m_TransformParent: {fileID: 0}
    m_Modifications:
    - target: {fileID: 196358, guid: 24ae687c2d5de7245ac5884e42b824e4, type: 3}
      propertyPath: m_Name
      value: SM_Env_Wall_Archway_13 (1)
      objectReference: {fileID: 0}
    - target: {fileID: 418860, guid: 24ae687c2d5de7245ac5884e42b824e4, type: 3}
      propertyPath: m_RootOrder
      value: 0
      objectReference: {fileID: 0}
    - target: {fileID: 418860, guid: 24ae687c2d5de7245ac5884e42b824e4, type: 3}
      propertyPath: m_LocalScale.y
      value: 0.8491814
      objectReference: {fileID: 0}
    - target: {fileID: 418860, guid: 24ae687c2d5de7245ac5884e42b824e4, type: 3}
      propertyPath: m_LocalPosition.x
      value: -35
      objectReference: {fileID: 0}
    - target: {fileID: 418860, guid: 24ae687c2d5de7245ac5884e42b824e4, type: 3}
      propertyPath: m_LocalPosition.y
      value: 7.5
      objectReference: {fileID: 0}
    - target: {fileID: 418860, guid: 24ae687c2d5de7245ac5884e42b824e4, type: 3}
      propertyPath: m_LocalPosition.z
      value: 10
      objectReference: {fileID: 0}
    - target: {fileID: 418860, guid: 24ae687c2d5de7245ac5884e42b824e4, type: 3}
      propertyPath: m_LocalRotation.w
      value: 0.000002324581
      objectReference: {fileID: 0}
    - target: {fileID: 418860, guid: 24ae687c2d5de7245ac5884e42b824e4, type: 3}
      propertyPath: m_LocalRotation.x
      value: 0
      objectReference: {fileID: 0}
    - target: {fileID: 418860, guid: 24ae687c2d5de7245ac5884e42b824e4, type: 3}
      propertyPath: m_LocalRotation.y
      value: 1
      objectReference: {fileID: 0}
    - target: {fileID: 418860, guid: 24ae687c2d5de7245ac5884e42b824e4, type: 3}
      propertyPath: m_LocalRotation.z
      value: 0
      objectReference: {fileID: 0}
    m_RemovedComponents: []
  m_SourcePrefab: {fileID: 100100000, guid: 24ae687c2d5de7245ac5884e42b824e4, type: 3}
