%YAML 1.1
%TAG !u! tag:unity3d.com,2011:
--- !u!1001 &2334946084430739157
PrefabInstance:
  m_ObjectHideFlags: 0
  serializedVersion: 2
  m_Modification:
    m_TransformParent: {fileID: 0}
    m_Modifications:
    - target: {fileID: 155150, guid: b1b739f336a20ed488fdb90b9a64faa0, type: 3}
      propertyPath: m_Name
      value: SM_Env_Door_Frame_18 (1)
      objectReference: {fileID: 0}
    - target: {fileID: 155150, guid: b1b739f336a20ed488fdb90b9a64faa0, type: 3}
      propertyPath: m_IsActive
      value: 1
      objectReference: {fileID: 0}
    - target: {fileID: 448968, guid: b1b739f336a20ed488fdb90b9a64faa0, type: 3}
      propertyPath: m_RootOrder
      value: 0
      objectReference: {fileID: 0}
    - target: {fileID: 448968, guid: b1b739f336a20ed488fdb90b9a64faa0, type: 3}
      propertyPath: m_LocalPosition.x
      value: -40
      objectReference: {fileID: 0}
    - target: {fileID: 448968, guid: b1b739f336a20ed488fdb90b9a64faa0, type: 3}
      propertyPath: m_LocalPosition.y
      value: 5
      objectReference: {fileID: 0}
    - target: {fileID: 448968, guid: b1b739f336a20ed488fdb90b9a64faa0, type: 3}
      propertyPath: m_LocalPosition.z
      value: -32.5
      objectReference: {fileID: 0}
    - target: {fileID: 448968, guid: b1b739f336a20ed488fdb90b9a64faa0, type: 3}
      propertyPath: m_LocalRotation.w
      value: 0.70710695
      objectReference: {fileID: 0}
    - target: {fileID: 448968, guid: b1b739f336a20ed488fdb90b9a64faa0, type: 3}
      propertyPath: m_LocalRotation.x
      value: 0
      objectReference: {fileID: 0}
    - target: {fileID: 448968, guid: b1b739f336a20ed488fdb90b9a64faa0, type: 3}
      propertyPath: m_LocalRotation.y
      value: 0.70710665
      objectReference: {fileID: 0}
    - target: {fileID: 448968, guid: b1b739f336a20ed488fdb90b9a64faa0, type: 3}
      propertyPath: m_LocalRotation.z
      value: 0
      objectReference: {fileID: 0}
    m_RemovedComponents: []
  m_SourcePrefab: {fileID: 100100000, guid: b1b739f336a20ed488fdb90b9a64faa0, type: 3}
