%YAML 1.1
%TAG !u! tag:unity3d.com,2011:
--- !u!1001 &8308282694877123520
PrefabInstance:
  m_ObjectHideFlags: 0
  serializedVersion: 2
  m_Modification:
    m_TransformParent: {fileID: 0}
    m_Modifications:
    - target: {fileID: 116930, guid: ded14b4d6268d2643ae9d947489d4667, type: 3}
      propertyPath: m_Name
      value: SM_Env_Wall_DoorFrame_Round_07 (1)
      objectReference: {fileID: 0}
    - target: {fileID: 116930, guid: ded14b4d6268d2643ae9d947489d4667, type: 3}
      propertyPath: m_IsActive
      value: 1
      objectReference: {fileID: 0}
    - target: {fileID: 421208, guid: ded14b4d6268d2643ae9d947489d4667, type: 3}
      propertyPath: m_RootOrder
      value: 0
      objectReference: {fileID: 0}
    - target: {fileID: 421208, guid: ded14b4d6268d2643ae9d947489d4667, type: 3}
      propertyPath: m_LocalPosition.x
      value: -35
      objectReference: {fileID: 0}
    - target: {fileID: 421208, guid: ded14b4d6268d2643ae9d947489d4667, type: 3}
      propertyPath: m_LocalPosition.y
      value: 5
      objectReference: {fileID: 0}
    - target: {fileID: 421208, guid: ded14b4d6268d2643ae9d947489d4667, type: 3}
      propertyPath: m_LocalPosition.z
      value: -10
      objectReference: {fileID: 0}
    - target: {fileID: 421208, guid: ded14b4d6268d2643ae9d947489d4667, type: 3}
      propertyPath: m_LocalRotation.w
      value: 0.0000023096798
      objectReference: {fileID: 0}
    - target: {fileID: 421208, guid: ded14b4d6268d2643ae9d947489d4667, type: 3}
      propertyPath: m_LocalRotation.x
      value: 0
      objectReference: {fileID: 0}
    - target: {fileID: 421208, guid: ded14b4d6268d2643ae9d947489d4667, type: 3}
      propertyPath: m_LocalRotation.y
      value: 1
      objectReference: {fileID: 0}
    - target: {fileID: 421208, guid: ded14b4d6268d2643ae9d947489d4667, type: 3}
      propertyPath: m_LocalRotation.z
      value: 0
      objectReference: {fileID: 0}
    m_RemovedComponents: []
  m_SourcePrefab: {fileID: 100100000, guid: ded14b4d6268d2643ae9d947489d4667, type: 3}
