%YAML 1.1
%TAG !u! tag:unity3d.com,2011:
--- !u!1001 &6912368576623785096
PrefabInstance:
  m_ObjectHideFlags: 0
  serializedVersion: 2
  m_Modification:
    m_TransformParent: {fileID: 0}
    m_Modifications:
    - target: {fileID: 121644, guid: 67f6358a70929f943ae115f8b4bcf075, type: 3}
      propertyPath: m_Name
      value: SM_Env_Tiles_175 (1)
      objectReference: {fileID: 0}
    - target: {fileID: 121644, guid: 67f6358a70929f943ae115f8b4bcf075, type: 3}
      propertyPath: m_IsActive
      value: 1
      objectReference: {fileID: 0}
    - target: {fileID: 419854, guid: 67f6358a70929f943ae115f8b4bcf075, type: 3}
      propertyPath: m_RootOrder
      value: 0
      objectReference: {fileID: 0}
    - target: {fileID: 419854, guid: 67f6358a70929f943ae115f8b4bcf075, type: 3}
      propertyPath: m_LocalPosition.x
      value: -30
      objectReference: {fileID: 0}
    - target: {fileID: 419854, guid: 67f6358a70929f943ae115f8b4bcf075, type: 3}
      propertyPath: m_LocalPosition.y
      value: 5
      objectReference: {fileID: 0}
    - target: {fileID: 419854, guid: 67f6358a70929f943ae115f8b4bcf075, type: 3}
      propertyPath: m_LocalPosition.z
      value: 0
      objectReference: {fileID: 0}
    - target: {fileID: 419854, guid: 67f6358a70929f943ae115f8b4bcf075, type: 3}
      propertyPath: m_LocalRotation.w
      value: 1
      objectReference: {fileID: 0}
    - target: {fileID: 419854, guid: 67f6358a70929f943ae115f8b4bcf075, type: 3}
      propertyPath: m_LocalRotation.x
      value: 0
      objectReference: {fileID: 0}
    - target: {fileID: 419854, guid: 67f6358a70929f943ae115f8b4bcf075, type: 3}
      propertyPath: m_LocalRotation.y
      value: 0.000000029802322
      objectReference: {fileID: 0}
    - target: {fileID: 419854, guid: 67f6358a70929f943ae115f8b4bcf075, type: 3}
      propertyPath: m_LocalRotation.z
      value: 0
      objectReference: {fileID: 0}
    m_RemovedComponents: []
  m_SourcePrefab: {fileID: 100100000, guid: 67f6358a70929f943ae115f8b4bcf075, type: 3}
