%YAML 1.1
%TAG !u! tag:unity3d.com,2011:
--- !u!1045 &1
EditorBuildSettings:
  m_ObjectHideFlags: 0
  serializedVersion: 2
  m_Scenes:
  - enabled: 1
    path: Assets/CH/Scenes/Intro.unity
    guid: 9e937f37c431d0741bf8249716d449e0
  - enabled: 1
    path: Assets/CH/Scenes/Cheolho 1.unity
    guid: eec270afb29c341458a9cc2b840c6a6f
  - enabled: 1
    path: Assets/CH/Scenes/SJ (ch).unity
    guid: 6f352d06b275a0744a404fa5d85a1539
  - enabled: 1
    path: Assets/CH/Scenes/SW (ch).unity
    guid: ecff7e740c5a9174188b996a24569012
  m_configObjects:
    UnityEditor.XR.ARCore.ARCoreSettings: {fileID: 11400000, guid: 120366c680565bf438f6fa72c5dcf14a,
      type: 2}
    UnityEditor.XR.ARKit.ARKitSettings: {fileID: 11400000, guid: 123b3fd8143e61f4c8b3a0136d638d3e,
      type: 2}
    com.unity.xr.management.loader_settings: {fileID: 11400000, guid: 2b0d7998d47482a4f8827682d4fa6efe,
      type: 2}
